{
    "status": "success",
      "result": {
        "page": 1,
        "page_size": 10,
        "total_count": 60,
        "page_count": 6,
        "item_list": [
          {
              "id": 1,
              "order":1,
              "name": "食品生产检查要点表",
              "path": "食品生产检查要点表",
              "kind":2
          },
          {
              "id": 2,
              "order":2,
              "name": "食品生产检查要点表",
              "path": "食品生产检查要点表",
              "kind": 1
          },
          {
              "id": 3,
              "order":1,
              "name": "食品生产检查要点表",
              "path": "食品生产检查要点表",
              "kind": 1
          } ,
          {
            "id": 4,
            "order":1,
            "name": "食品生产检查要点表",
            "path": "食品生产检查要点表",
            "kind": 1
        },
        {
            "id": 5,
            "order":1,
            "name": "食品生产检查要点表",
            "path": "食品生产检查要点表",
            "kind": 1
        },
        {
            "id": 6,
            "order":1,
            "name": "食品生产检查要点表",
            "path": "食品生产检查要点表",
            "kind": 1
        } ,    
        {
            "id": 7,
            "order":1,
            "name": "食品生产检查要点表",
            "path": "食品生产检查要点表",
            "kind":2
        } ,    
        {
            "id": 8,
            "order":1,
            "name": "食品生产检查要点表",
            "path": "食品生产检查要点表",
            "kind": 1
        } ,  
        {
            "id": 9,
            "order":1,
            "name": "食品生产检查要点表",
            "path": "食品生产检查要点表",
            "kind": 2
        },     
        {
            "id": 10,
            "order":1,
            "name": "食品生产检查要点表",
            "path": "食品生产检查要点表",
            "kind": 1
        }           
        ]
      }
    }