{
    "status": "success",
      "result": {
        "page": 1,
        "page_size": 10,
        "total_count": 60,
        "page_count": 6,
        "item_list": [
          {
              "id": 1,
              "name": "一、许可管理（100分）",
              "extra": "",
              "kind":"餐饮服务单位",
              "order":1
          },
          {
              "id": 2,
              "name": "一、许可管理（100分）",
              "extra": "",
              "kind":"餐饮服务单位",
              "order":1
          },
          {
              "id": 3,
              "name": "一、许可管理（100分）",
              "extra": "",
              "kind":"餐饮服务单位",
              "order":1
          } ,
          {
            "id": 4,
            "name": "一、许可管理（100分）",
            "extra": "",
            "kind":"餐饮服务单位",
            "order":1
        },
        {
            "id": 5,
            "name": "一、许可管理（100分）",
              "extra": "",
              "kind":"餐饮服务单位",
              "order":1
        },
        {
            "id": 6,
            "name": "一、许可管理（100分）",
            "extra": "",
            "kind":"餐饮服务单位",
            "order":1
        } ,    
        {
            "id": 7,
            "name": "一、许可管理（100分）",
            "extra": "",
            "kind":"餐饮服务单位",
            "order":1
        } ,    
        {
            "id": 8,
            "name": "一、许可管理（100分）",
              "extra": "",
              "kind":"餐饮服务单位",
              "order":1
        } ,  
        {
            "id": 9,
            "name": "一、许可管理（100分）",
              "extra": "",
              "kind":"餐饮服务单位",
              "order":1
        },     
        {
            "id": 10,
            "name": "一、许可管理（100分）",
            "extra": "",
            "kind":"餐饮服务单位",
            "order":1
        }           
        ]
      }
    }