{
  "status": "success",
  "result": {
    "page": 1,
    "page_size": 10,
    "total_count": 60,
    "page_count": 6,
    "item_list": [
      {
        "id": 1,
        "ctype": "餐饮服务经营者",
        "name": "测试餐饮",
        "type": "特大型餐馆",
        "number": "14359752452",
        "address": "青岛市黄岛区"
      }
    ]
  }
}