{
  "status": "success",
  "result": {
    "pageNo": 1,
    "page_size": 10,
    "total_count": 60,
    "page_count": 6,
    "item_list": [
      {
        "id": 1,
        "num":"0",
        "type": "蔬菜"
      }, {
        "id": 2,
        "num":"0",
        "type": "烟酒"
      }
    ]
  }
}