{
  "status": "success",
    "result": {
      "page": 1,
      "page_size": 10,
      "total_count": 60,
      "page_count": 6,
      "item_list": [
        {
          "id": 1,
          "date":"2019-02-23",
          "checkrecord": "体温，是否有划伤，有无感冒"
         
        },
        {
          "id": 2,
          "date":"2019-02-23",
          "checkrecord": "体温，是否有划伤，有无感冒"
        },
        {
          "id": 3,
          "date":"2019-02-23",
          "checkrecord": "体温，是否有划伤，有无感冒"
        },
        {
          "id": 4,
          "date":"2019-02-23",
          "checkrecord": "体温，是否有划伤，有无感冒"
        },
        {
          "id": 5,
          "date":"2019-02-23",
          "checkrecord": "体温，是否有划伤，有无感冒"
        },
        {
          "id": 6,
          "date":"2019-02-23",
          "checkrecord": "体温，是否有划伤，有无感冒"
        },
        {
          "id": 7,
          "date":"2019-02-23",
          "checkrecord": "体温，是否有划伤，有无感冒"
        },
        {
          "id": 8,
          "date":"2019-02-23",
          "checkrecord": "体温，是否有划伤，有无感冒"
        },
        {
          "id": 9,
          "date":"2019-02-23",
          "checkrecord": "体温，是否有划伤，有无感冒"
        },
        {
          "id": 10,
          "date":"2019-02-23",
          "checkrecord": "体温，是否有划伤，有无感冒"
        }
      ]
    }
  }