{
    "status": "success",
      "result": {
        "page": 1,
        "page_size": 10,
        "total_count": 60,
        "page_count": 6,
        "item_list": [
          {
              "id": 1,
              "op":"许可管理",
              "content": "在经营场所醒目位置公示食品经营许可证",
              "imp": "*",
              "result": "合理缺项",
              "ex":""
          },
          {
              "id": 2,
              "op":"许可管理",
              "content": "在经营场所醒目位置公示食品经营许可证",
              "imp": "*",
              "result": "合理缺项",
              "ex":""
          },
          {
              "id": 3,
              "op":"许可管理",
              "content": "在经营场所醒目位置公示食品经营许可证",
              "imp": "*",
              "result": "合理缺项",
              "ex":""
          },  
          {
            "id": 4,
            "op":"许可管理",
            "content": "在经营场所醒目位置公示食品经营许可证",
            "imp": "*",
            "result": "合理缺项",
            "ex":""
        },  
         {
            "id": 5,
            "op":"许可管理",
            "content": "在经营场所醒目位置公示食品经营许可证",
            "imp": "*",
            "result": "合理缺项",
            "ex":""
        },    
        {
            "id": 6,
            "op":"许可管理",
            "content": "在经营场所醒目位置公示食品经营许可证",
            "imp": "*",
            "result": "合理缺项",
            "ex":""
        },  
        {
            "id": 7,
            "op":"许可管理",
            "content": "在经营场所醒目位置公示食品经营许可证",
            "imp": "*",
            "result": "合理缺项",
            "ex":""
        },  
        {
            "id": 8,
            "op":"许可管理",
            "content": "在经营场所醒目位置公示食品经营许可证",
            "imp": "*",
            "result": "合理缺项",
            "ex":""
        },  
        {
            "id": 9,
            "op":"许可管理",
            "content": "在经营场所醒目位置公示食品经营许可证",
            "imp": "*",
            "result": "合理缺项",
            "ex":""
        },  
        {
            "id": 10,
            "op":"许可管理",
            "content": "在经营场所醒目位置公示食品经营许可证",
            "imp": "*",
            "result": "合理缺项",
            "ex":""
        }
        ]
      }
    }