{
    "status": "success",
      "result": {
        "page": 1,
        "page_size": 10,
        "total_count": 60,
        "page_count": 6,
        "item_list": [
          {
              "id": 1,
              "kind":"小作坊",
              "order":1,
              "checkname":"主体资格",
              "type":1,
              "extra":"主体资格"
          },
          {
              "id": 2,
              "kind":"小作坊",
              "order":1,
              "checkname":"主体资格",
              "type":1,
              "extra":"主体资格"
          },
          {
              "id": 3,
              "kind":"小作坊",
              "order":1,
              "checkname":"主体资格",
              "type":1,
              "extra":"主体资格"
          } ,
          {
            "id": 4,
            "kind":"小作坊",
            "order":1,
            "checkname":"主体资格",
            "type":1,
            "extra":"主体资格"
        },
        {
            "id": 5,
            "kind":"小作坊",
            "order":1,
            "checkname":"主体资格",
            "type":1,
            "extra":"主体资格"
        },
        {
            "id": 6,
            "kind":"小作坊",
            "order":1,
            "checkname":"主体资格",
            "type":1,
            "extra":"主体资格"
        } ,    
        {
            "id": 7,
            "kind":"小作坊",
            "order":1,
            "checkname":"主体资格",
            "type":1,
            "extra":"主体资格"
        } ,    
        {
            "id": 8,
            "kind":"小作坊",
            "order":1,
            "checkname":"主体资格",
            "type":1,
            "extra":"主体资格"
        } ,  
        {
            "id": 9,
            "kind":"小作坊",
            "order":1,
            "checkname":"主体资格",
            "type":1,
            "extra":"主体资格"
        },     
        {
            "id": 10,
            "kind":"小作坊",
            "order":1,
            "checkname":"主体资格",
            "type":1,
            "extra":"主体资格"
        }           
        ]
      }
    }