{
    "status": "success",
      "result": {
        "page": 1,
        "page_size": 10,
        "total_count": 60,
        "page_count": 6,
        "item_list": [
          {
              "id": 1,
              "kind":"小作坊",
              "order":1,
              "checkname":"主体资格",
              "type":1,
              "content":"食品经营许可证合法有效，经营场所、主体业态、经营项目等事项与食品经营许可证一致。",
              "important":"一般项",
              "checkfile":"食品经营许可证合法有效",
              "grade":0,
              "law":"",
              "extra":"食品经营许可证合法有效"
          },
          {
              "id": 2,
              "kind":"小作坊",
              "order":1,
              "checkname":"主体资格",
              "type":1,
              "content":"食品经营许可证合法有效，经营场所、主体业态、经营项目等事项与食品经营许可证一致。",
              "important":"一般项",
              "checkfile":"食品经营许可证合法有效",
              "grade":0,
              "law":"",
              "extra":"食品经营许可证合法有效"
          },
          {
              "id": 3,
              "kind":"小作坊",
              "order":1,
              "checkname":"主体资格",
              "type":1,
              "content":"食品经营许可证合法有效，经营场所、主体业态、经营项目等事项与食品经营许可证一致。",
              "important":"一般项",
              "checkfile":"食品经营许可证合法有效",
              "grade":0,
              "law":"",
              "extra":"食品经营许可证合法有效"
          } ,
          {
            "id": 4,
            "kind":"小作坊",
            "order":1,
            "checkname":"主体资格",
            "type":1,
            "content":"食品经营许可证合法有效，经营场所、主体业态、经营项目等事项与食品经营许可证一致。",
            "important":"一般项",
            "checkfile":"食品经营许可证合法有效",
            "grade":0,
            "law":"",
            "extra":"食品经营许可证合法有效"
        },
        {
            "id": 5,
            "kind":"小作坊",
            "order":1,
            "checkname":"主体资格",
            "type":1,
            "content":"食品经营许可证合法有效，经营场所、主体业态、经营项目等事项与食品经营许可证一致。",
            "important":"一般项",
            "checkfile":"食品经营许可证合法有效",
            "grade":0,
            "law":"",
            "extra":"食品经营许可证合法有效"
        },
        {
            "id": 6,
            "kind":"小作坊",
            "order":1,
            "checkname":"主体资格",
            "type":1,
            "content":"食品经营许可证合法有效，经营场所、主体业态、经营项目等事项与食品经营许可证一致。",
              "important":"一般项",
              "checkfile":"食品经营许可证合法有效",
              "grade":0,
              "law":"",
              "extra":"食品经营许可证合法有效"
        } ,    
        {
            "id": 7,
            "kind":"小作坊",
            "order":1,
            "checkname":"主体资格",
            "type":1,
            "content":"食品经营许可证合法有效，经营场所、主体业态、经营项目等事项与食品经营许可证一致。",
            "important":"一般项",
            "checkfile":"食品经营许可证合法有效",
            "grade":0,
            "law":"",
            "extra":"食品经营许可证合法有效"
        } ,    
        {
            "id": 8,
            "kind":"小作坊",
            "order":1,
            "checkname":"主体资格",
            "type":1,
            "content":"食品经营许可证合法有效，经营场所、主体业态、经营项目等事项与食品经营许可证一致。",
              "important":"一般项",
              "checkfile":"食品经营许可证合法有效",
              "grade":0,
              "law":"",
              "extra":"食品经营许可证合法有效"
        } ,  
        {
            "id": 9,
            "kind":"小作坊",
            "order":1,
            "checkname":"主体资格",
            "type":1,
            "content":"食品经营许可证合法有效，经营场所、主体业态、经营项目等事项与食品经营许可证一致。",
              "important":"一般项",
              "checkfile":"食品经营许可证合法有效",
              "grade":0,
              "law":"",
              "extra":"食品经营许可证合法有效"
        },     
        {
            "id": 10,
            "kind":"小作坊",
            "order":1,
            "checkname":"主体资格",
            "type":1,
            "content":"食品经营许可证合法有效，经营场所、主体业态、经营项目等事项与食品经营许可证一致。",
            "important":"一般项",
            "checkfile":"食品经营许可证合法有效",
            "grade":0,
            "law":"",
            "extra":"食品经营许可证合法有效"
        }           
        ]
      }
    }