{
    "status": "success",
      "result": {
        "page": 1,
        "page_size": 3,
        "total_count": 60,
        "page_count": 6,
        "item_list": [
          {
              "id": 1,
              "op":"添加",
              "movedate": "2018-08-11",
              "explain": "添加一次监督检查：2019年01月24日 04时25分至16时30分",
              "person": "经理"
          },
          {
              "id": 2,
              "op":"添加",
              "movedate": "2018-08-11",
              "explain": "添加一次监督检查：2019年01月24日 04时25分至16时30分",
              "person": "经理"
          },
          {
              "id": 3,
              "op":"添加",
              "movedate": "2018-08-11",
              "explain": "添加一次监督检查：2019年01月24日 04时25分至16时30分",
              "person": "经理"
          }       
        ]
      }
    }