{
    "status": "success",
      "result": {
        "page": 1,
        "page_size": 10,
        "total_count": 25,
        "page_count": 3,
        "item_list": [
          {
            "id": 1,
            "name": "千佛山食药所",
            "year": "2018",
            "ename":"山东舜和酒店集团有限公司",
            "date":"2018-12-27",
            "person":"李永波",
            "result":"A",
            "state":"已结束"
          },
          {
            "id": 2,
            "name": "千佛山食药所",
            "year": "2018",
            "ename":"山东舜和酒店集团有限公司",
            "date":"2018-12-27",
            "person":"李永波",
            "result":"A",
            "state":1
          },
          {
            "id": 3,
            "name": "千佛山食药所",
            "year": "2018",
            "ename":"山东舜和酒店集团有限公司",
            "date":"2018-12-27",
            "person":"李永波",
            "result":"A",
            "state":1
          },
          {
            "id": 4,
            "name": "千佛山食药所",
            "year": "2018",
            "ename":"山东舜和酒店集团有限公司",
            "date":"2018-12-27",
            "person":"李永波",
            "result":"A",
            "state":1
          },
          {
            "id": 5,
            "name": "千佛山食药所",
            "year": "2018",
            "ename":"山东舜和酒店集团有限公司",
            "date":"2018-12-27",
            "person":"李永波",
            "result":"A",
            "state":1
          },
          {
            "id": 6,
            "name": "千佛山食药所",
            "year": "2018",
            "ename":"山东舜和酒店集团有限公司",
            "date":"2018-12-27",
            "person":"李永波",
            "result":"A",
            "state":1
          },
          {
            "id": 7,
            "name": "千佛山食药所",
            "year": "2018",
            "ename":"山东舜和酒店集团有限公司",
            "date":"2018-12-27",
            "person":"李永波",
            "result":"A",
            "state":1
          },
          {
              "id": 8,
              "name": "千佛山食药所",
            "year": "2018",
            "ename":"山东舜和酒店集团有限公司",
            "date":"2018-12-27",
            "person":"李永波",
            "result":"A",
            "state":1
            },
            {
              "id": 9,
              "name": "千佛山食药所",
              "year": "2018",
              "ename":"山东舜和酒店集团有限公司",
              "date":"2018-12-27",
              "person":"李永波",
              "result":"A",
              "state":1
            },
            {
              "id": 10,
              "name": "千佛山食药所",
            "year": "2018",
            "ename":"山东舜和酒店集团有限公司",
            "date":"2018-12-27",
            "person":"李永波",
            "result":"A",
            "state":1
          }
        ]
      }
    }