{
  "status": "success",
    "result": {
      "page": 1,
      "page_size": 10,
      "total_count": 60,
      "page_count": 6,
      "item_list": [
        {
          "id": 1,
          "enterprise":"石油大学",
          "name": "山东菜",
          "sex": "女",
          "education": "硕士",
          "health": "合格",
          "healthnum": 123,
          "healthdate": "1997-2027",
          "worktype":"厨房",
          "train":"已培训",
          "issuedate":"2019-5-10",
          "effective_deadline":"",
          "certification_authority":""
        },
        {
          "id": 2,
          "enterprise":"石油大学",
          "name": "山东菜",
          "sex": "女",
          "education": "硕士",
          "health":"合格",
          "healthnum": 123,
          "healthdate": "1997-2027",
          "worktype":"厨房",
          "train":"已培训",
          "issuedate":"",
          "effective_deadline":"",
          "certification_authority":""
        },
        {
          "id": 3,
          "enterprise":"石油大学",
          "name": "山东菜",
          "sex": "女",
          "education": "硕士",
          "health": "合格",
          "healthnum": 123,
          "healthdate": "1997-2027",
          "worktype":"厨房",
          "train":"已培训",
          "issuedate":"",
          "effective_deadline":"",
          "certification_authority":""
        },
        {
          "id": 4,
          "enterprise":"石油大学",
          "name": "山东菜",
          "sex": "女",
          "education": "硕士",
          "health": "合格",
          "healthnum": 123,
          "healthdate": "1997-2027",
          "worktype":"厨房",
          "train":"已培训",
          "issuedate":"",
          "effective_deadline":"",
          "certification_authority":""
        },
        {
          "id": 5,
          "enterprise":"石油大学",
          "name": "山东菜",
          "sex": "女",
          "education": "硕士",
          "health": "合格",
          "healthnum": 123,
          "healthdate": "1997-2027",
          "worktype":"厨房",
          "train":"已培训",
          "issuedate":"",
          "effective_deadline":"",
          "certification_authority":""
        },
        {
          "id": 6,
          "enterprise":"石油大学",
          "name": "山东菜",
          "sex": "女",
          "education": "硕士",
          "health": "合格",
          "healthnum": 123,
          "healthdate": "1997-2027",
          "worktype":"厨房",
          "train":"已培训",
          "issuedate":"",
          "effective_deadline":"",
          "certification_authority":""
        },
        {
          "id": 7,
          "enterprise":"石油大学",
          "name": "山东菜",
          "sex": "女",
          "education": "硕士",
          "health": "合格",
          "healthnum": 123,
          "healthdate": "1997-2027",
          "worktype":"厨房",
          "train":"已培训",
          "issuedate":"",
          "effective_deadline":"",
          "certification_authority":""
        },
        {
          "id": 8,
          "enterprise":"石油大学",
          "name": "山东菜",
          "sex": "女",
          "education": "硕士",
          "health": "合格",
          "healthnum": 123,
          "healthdate": "1997-2027",
          "worktype":"厨房",
          "train":"已培训",
          "issuedate":"",
          "effective_deadline":"",
          "certification_authority":""
        },
        {
          "id": 9,
          "enterprise":"石油大学",
          "name": "山东菜",
          "sex": "女",
          "education": "硕士",
          "health": "合格",
          "healthnum": 123,
          "healthdate": "1997-2027",
          "worktype":"厨房",
          "train":"已培训",
          "issuedate":"",
          "effective_deadline":"",
          "certification_authority":""
        },
        {
          "id": 10,
          "enterprise":"石油大学",
          "name": "山东菜",
          "sex": "女",
          "education": "硕士",
          "health": "合格",
          "healthnum": 123,
          "healthdate": "1997-2027",
          "worktype":"厨房",
          "train":"已培训",
          "issuedate":"",
          "effective_deadline":"",
          "certification_authority":""
        }
      ]
    }
  }