{
  "status": "success",
  "result": {
    "page": 1,
    "page_size": 10,
    "total_count": 60,
    "page_count": 6,
    "item_list": [
      {
        "id": 1,
        "name": "山东菜",
        "scale": "炒菜",
        "code": 125124124215215,
        "area": "黄岛区",
        "grid": "黄岛网格",
        "organization": "药监局",
        "person": "张晨晨",
        "status": 1,
        "number":22,
        "lasttime":"2018-09-09"
      },
      {
        "id": 2,
        "name": "山东菜",
        "scale": "炒菜",
        "code": 125124124215215,
        "area": "黄岛区",
        "grid": "黄岛网格",
        "organization": "药监局",
        "person": "张晨晨",
        "status": 1,
        "number":22,
        "lasttime":"2018-09-09"
      },
      {
        "id": 3,
        "name": "山东菜",
        "scale": "炒菜",
        "code": 125124124215215,
        "area": "黄岛区",
        "grid": "黄岛网格",
        "organization": "药监局",
        "person": "张晨晨",
        "status": 1,
        "number":22,
        "lasttime":"2018-09-09"
      },
      {
        "id": 4,
        "name": "山东菜",
        "scale": "炒菜",
        "code": 125124124215215,
        "area": "黄岛区",
        "grid": "黄岛网格",
        "organization": "药监局",
        "person": "张晨晨",
        "status": 1,
        "number":22,
        "lasttime":"2018-09-09"
      },
      {
        "id": 5,
        "name": "山东菜",
        "scale": "炒菜",
        "code": 125124124215215,
        "area": "黄岛区",
        "grid": "黄岛网格",
        "organization": "药监局",
        "person": "张晨晨",
        "status": 1,
        "number":22,
        "lasttime":"2018-09-09"
      },
      {
        "id": 6,
        "name": "山东菜",
        "scale": "炒菜",
        "code": 125124124215215,
        "area": "黄岛区",
        "grid": "黄岛网格",
        "organization": "药监局",
        "person": "张晨晨",
        "status": 1,
        "number":22,
        "lasttime":"2018-09-09"
      },
      {
        "id": 7,
        "name": "山东菜",
        "scale": "炒菜",
        "code": 125124124215215,
        "area": "黄岛区",
        "grid": "黄岛网格",
        "organization": "药监局",
        "person": "张晨晨",
        "status": 1,
        "number":22,
        "lasttime":"2018-09-09"
      },
      {
        "id": 8,
        "name": "山东菜",
        "scale": "炒菜",
        "code": 125124124215215,
        "area": "黄岛区",
        "grid": "黄岛网格",
        "organization": "药监局",
        "person": "张晨晨",
        "status": 1,
        "number":22,
        "lasttime":"2018-09-09"
      },
      {
        "id": 9,
        "name": "山东菜",
        "scale": "炒菜",
        "code": 125124124215215,
        "area": "黄岛区",
        "grid": "黄岛网格",
        "organization": "药监局",
        "person": "张晨晨",
        "status": 1,
        "number":22,
        "lasttime":"2018-09-09"
      },
      {
        "id": 10,
        "name": "山东菜",
        "scale": "炒菜",
        "code": 125124124215215,
        "area": "黄岛区",
        "grid": "黄岛网格",
        "organization": "药监局",
        "person": "张晨晨",
        "status": 1,
        "number":22,
        "lasttime":"2018-09-09"
      }
    ]
  }
}