{
  "status": "success",
    "result": {
      "page": 1,
      "page_size": 10,
      "total_count": 60,
      "page_count": 6,
      "item_list": [
        {
          "id": 1,
          "classification":"保健食品生产",
          "number": 27,
          "type": "保健食品",
          "no": 2713,
          "classname": "糖果类"        
        },
        {
          "id": 2,
          "classification":"保健食品生产",
          "number": 27,
          "type": "保健食品",
          "no": 2713,
          "classname": "糖果类" 
        },
        {
          "id": 3,
          "classification":"保健食品生产",
          "number": 27,
          "type": "保健食品",
          "no": 2713,
          "classname": "糖果类" 
        },
        {
          "id": 4,
          "classification":"保健食品生产",
          "number": 27,
          "type": "保健食品",
          "no": 2713,
          "classname": "糖果类" 
        },
        {
          "id": 5,
          "classification":"保健食品生产",
          "number": 27,
          "type": "保健食品",
          "no": 2713,
          "classname": "糖果类" 
        },
        {
          "id": 6,
          "classification":"保健食品生产",
          "number": 27,
          "type": "保健食品",
          "no": 2713,
          "classname": "糖果类" 
        },
        {
          "id": 7,
          "classification":"保健食品生产",
          "number": 27,
          "type": "保健食品",
          "no": 2713,
          "classname": "糖果类" 
        },
        {
          "id": 8,
          "classification":"保健食品生产",
          "number": 27,
          "type": "保健食品",
          "no": 2713,
          "classname": "糖果类" 
        },
        {
          "id": 9,
          "classification":"保健食品生产",
          "number": 27,
          "type": "保健食品",
          "no": 2713,
          "classname": "糖果类" 
        },
        {
          "id": 10,
          "classification":"保健食品生产",
          "number": 27,
          "type": "保健食品",
          "no": 2713,
          "classname": "糖果类" 
        }
      ]
    }
  }