{

  "status": "success",

    "result": {
      "page": 1,
      "page_size": 10,
      "total_count": 60,
      "page_count": 6,
      "item_list": [
        {
          "id": 1,
          "type":"食品生产企业",
          "name": "黄岛区食药局",
          "code": 125124124215215,
          "status": 1
        },
        {
          "id": 2,
          "type":"食品生产企业",
          "name": "黄岛区食药局",
          "code": 125124124215215,
          "status": 1
        },
        {
          "id": 3,
          "type":"食品生产企业",
          "name": "黄岛区食药局",
          "code": 125124124215215,
          "status": 1
        },
        {
          "id": 4,
          "type":"食品生产企业",
          "name": "黄岛区食药局",
          "code": 125124124215215,
          "status": 1
        },
        {
          "id": 5,
          "type":"食品生产企业",
          "name": "黄岛区食药局",
          "code": 125124124215215,
          "status": 1
        },
        {
          "id": 6,
          "type":"食品生产企业",
          "name": "黄岛区食药局",
          "code": 125124124215215,
          "status": 1
        },
        {
          "id": 7,
          "type":"食品生产企业",
          "name": "黄岛区食药局",
          "code": 125124124215215,
          "status": 1
        },
        {
          "id": 8,
          "type":"食品生产企业",
          "name": "黄岛区食药局",
          "code": 125124124215215,
          "status": 1
        },
        {
          "id": 9,
          "type":"食品生产企业",
          "name": "黄岛区食药局",
          "code": 125124124215215,
          "status": 1
        },
        {
          "id": 10,
          "type":"食品生产企业",
          "name": "黄岛区食药局",
          "code": 125124124215215,
          "status": 1
        }
      ]
    }
  }