{
  "status": "success",
  "result": {
    "page": 1,
    "page_size": 10,
    "total_count": 20,
    "page_count": 2,
    "menuList": [
      {
        "id": 1,
        "name": "企业管理",
        "parentId": 0,
        "level": "0",
        "seq": 1,
        "status": 1,
        "remark": "product",
        "operator": "Admin",
        "operateTime": "2017-10-14T21:13:15.000+0000",
        "operateIp": "0:0:0:0:0:0:0:1",
        "aclModuleList": [
          {
            "id": 4,
            "name": "店招管理",
            "parentId": 1,
            "level": "0.1",
            "seq": 1,
            "status": 1,
            "remark": "",
            "operator": "Admin",
            "operateTime": "2017-10-14T21:13:39.000+0000",
            "operateIp": "0:0:0:0:0:0:0:1",
            "aclModuleList": [],
            "aclList": [],
            "key": 4
          },
          {
            "id": 5,
            "name": "公司管理",
            "parentId": 1,
            "level": "0.1",
            "seq": 2,
            "status": 1,
            "remark": "",
            "operator": "Admin",
            "operateTime": "2017-10-14T20:18:02.000+0000",
            "operateIp": "0:0:0:0:0:0:0:1",
            "aclModuleList": [],
            "aclList": [],
            "key": 5
          }
        ],
        "aclList": [],
        "key": 1
      },
      {
        "id": 2,
        "name": "订单管理",
        "parentId": 0,
        "level": "0",
        "seq": 2,
        "status": 1,
        "remark": "",
        "operator": "Admin",
        "operateTime": "2017-10-14T20:17:11.000+0000",
        "operateIp": "0:0:0:0:0:0:0:1",
        "aclModuleList": [],
        "aclList": [],
        "key": 2
      },
      {
        "id": 3,
        "name": "公告管理",
        "parentId": 0,
        "level": "0",
        "seq": 3,
        "status": 1,
        "remark": "",
        "operator": "Admin",
        "operateTime": "2017-10-14T20:17:21.000+0000",
        "operateIp": "0:0:0:0:0:0:0:1",
        "aclModuleList": [],
        "aclList": [],
        "key": 3
      },
      {
        "id": 6,
        "name": "权限管理",
        "parentId": 0,
        "level": "0",
        "seq": 4,
        "status": 1,
        "remark": "",
        "operator": "Admin",
        "operateTime": "2017-10-15T21:27:37.000+0000",
        "operateIp": "0:0:0:0:0:0:0:1",
        "aclModuleList": [
          {
            "id": 7,
            "name": "权限管理",
            "parentId": 6,
            "level": "0.6",
            "seq": 1,
            "status": 1,
            "remark": "",
            "operator": "Admin",
            "operateTime": "2017-10-15T21:27:57.000+0000",
            "operateIp": "0:0:0:0:0:0:0:1",
            "aclModuleList": [
              {
                "id": 12,
                "name": "权限子模块",
                "parentId": 7,
                "level": "0.6.7",
                "seq": 1,
                "status": 1,
                "remark": "",
                "operator": "Kate",
                "operateTime": "2019-04-15T09:55:57.000+0000",
                "operateIp": "0:0:0:0:0:0:0:1",
                "aclModuleList": [],
                "aclList": [],
                "key": 12
              }
            ],
            "aclList": [],
            "key": 7
          },
          {
            "id": 8,
            "name": "角色管理",
            "parentId": 6,
            "level": "0.6",
            "seq": 2,
            "status": 1,
            "remark": "",
            "operator": "Admin",
            "operateTime": "2017-10-15T21:28:22.000+0000",
            "operateIp": "0:0:0:0:0:0:0:1",
            "aclModuleList": [],
            "aclList": [],
            "key": 8
          },
          {
            "id": 9,
            "name": "用户管理",
            "parentId": 6,
            "level": "0.6",
            "seq": 2,
            "status": 1,
            "remark": "",
            "operator": "Admin",
            "operateTime": "2017-10-15T21:28:36.000+0000",
            "operateIp": "0:0:0:0:0:0:0:1",
            "aclModuleList": [],
            "aclList": [],
            "key": 9
          },
          {
            "id": 11,
            "name": "权限更新记录管理",
            "parentId": 6,
            "level": "0.6",
            "seq": 4,
            "status": 1,
            "remark": "",
            "operator": "Admin",
            "operateTime": "2017-10-16T23:04:07.000+0000",
            "operateIp": "0:0:0:0:0:0:0:1",
            "aclModuleList": [],
            "aclList": [],
            "key": 11
          }
        ],
        "aclList": [],
        "key": 6
      },
      {
        "id": 10,
        "name": "运维管理",
        "parentId": 0,
        "level": "0",
        "seq": 6,
        "status": 1,
        "remark": "",
        "operator": "Admin",
        "operateTime": "2017-10-16T23:03:37.000+0000",
        "operateIp": "0:0:0:0:0:0:0:1",
        "aclModuleList": [],
        "aclList": [],
        "key": 10
      }
    ]
  }
}