{
    "status": "success",
      "result": {
        "pageNo": 1,
        "page_size": 10,
        "total_count": 25,
        "page_count": 3,
        "item_list": [
          {
            "id": 1,
            "disposaltime": "处置时间",
            "kind": "种类",
            "number":"数量",
            "disposalperson":"处置人",
            "registrationtime":"登记时间",
            "recyclingenterprises":"回收企业",
            "recycler":"回收人",
            "extra":"备注",
            "disposalhour":"1",
            "disposalmin":"1",
            "registrationhour":"1",
            "registrationmin":"1",
            "area":"所在区域",
            "unitname":"单位名称"
          },
          {
            "id": 2,
            "disposaltime": "处置时间1",
            "kind": "种类",
            "number":"数量",
            "disposalperson":"处置人",
            "registrationtime":"登记时间",
            "recyclingenterprises":"回收企业",
            "recycler":"回收人",
            "extra":"备注",
            "disposalhour":"1",
            "disposalmin":"1",
            "registrationhour":"1",
            "registrationmin":"1",
            "area":"所在区域",
            "unitname":"单位名称"
          },
          {
            "id": 3,
            "disposaltime": "处置时间",
            "kind": "种类",
            "number":"数量",
            "disposalperson":"处置人",
            "registrationtime":"登记时间",
            "recyclingenterprises":"回收企业",
            "recycler":"回收人",
            "extra":"备注",
            "disposalhour":"1",
            "disposalmin":"1",
            "registrationhour":"1",
            "registrationmin":"1",
            "area":"所在区域",
            "unitname":"单位名称"
          },
          {
            "id": 4,
            "disposaltime": "处置时间",
            "kind": "种类",
            "number":"数量",
            "disposalperson":"处置人",
            "registrationtime":"登记时间",
            "recyclingenterprises":"回收企业",
            "recycler":"回收人",
            "extra":"备注",
            "disposalhour":"1",
            "disposalmin":"1",
            "registrationhour":"1",
            "registrationmin":"1",
            "area":"所在区域",
            "unitname":"单位名称"
          },
          {
            "id": 5,
            "disposaltime": "处置时间",
            "kind": "种类",
            "number":"数量",
            "disposalperson":"处置人",
            "registrationtime":"登记时间",
            "recyclingenterprises":"回收企业",
            "recycler":"回收人",
            "extra":"备注",
            "disposalhour":"1",
            "disposalmin":"1",
            "registrationhour":"1",
            "registrationmin":"1",
            "area":"所在区域",
            "unitname":"单位名称"
          },
          {
            "id": 6,
            "disposaltime": "处置时间",
            "kind": "种类",
            "number":"数量",
            "disposalperson":"处置人",
            "registrationtime":"登记时间",
            "recyclingenterprises":"回收企业",
            "recycler":"回收人",
            "extra":"备注",
            "disposalhour":"1",
            "disposalmin":"1",
            "registrationhour":"1",
            "registrationmin":"1",
            "area":"所在区域",
            "unitname":"单位名称"
          },
          {
            "id": 7,
            "disposaltime": "处置时间",
            "kind": "种类",
            "number":"数量",
            "disposalperson":"处置人",
            "registrationtime":"登记时间",
            "recyclingenterprises":"回收企业",
            "recycler":"回收人",
            "extra":"备注",
            "disposalhour":"1",
            "disposalmin":"1",
            "registrationhour":"1",
            "registrationmin":"1",
            "area":"所在区域",
            "unitname":"单位名称"
          },
          {
              "id": 8,
              "disposaltime": "处置时间",
            "kind": "种类",
            "number":"数量",
            "disposalperson":"处置人",
            "registrationtime":"登记时间",
            "recyclingenterprises":"回收企业",
            "recycler":"回收人",
            "extra":"备注",
            "disposalhour":"1",
            "disposalmin":"1",
            "registrationhour":"1",
            "registrationmin":"1",
            "area":"所在区域",
            "unitname":"单位名称"
            },
            {
              "id": 9,
              "disposaltime": "处置时间",
            "kind": "种类",
            "number":"数量",
            "disposalperson":"处置人",
            "registrationtime":"登记时间",
            "recyclingenterprises":"回收企业",
            "recycler":"回收人",
            "extra":"备注",
            "disposalhour":"1",
            "disposalmin":"1",
            "registrationhour":"1",
            "registrationmin":"1",
            "area":"所在区域",
            "unitname":"单位名称"
            },
            {
              "id": 10,
              "disposaltime": "处置时间",
            "kind": "种类",
            "number":"数量",
            "disposalperson":"处置人",
            "registrationtime":"登记时间",
            "recyclingenterprises":"回收企业",
            "recycler":"回收人",
            "extra":"备注",
            "disposalhour":"1",
            "disposalmin":"1",
            "registrationhour":"1",
            "registrationmin":"1",
            "area":"所在区域",
            "unitname":"单位名称"
          }
        ]
      }
    }