{
  "status": "success",
  "result": {
    "page": 1,
    "page_size": 10,
    "total_count": 60,
    "page_count": 6,
    "item_list": [
      {
        "id": 1,
        "unit": "电子商务有限公司",
        "name": "张三",
        "sex": 1,
        "education": "高中",
        "test": "合格",
        "number": "97552",
        "term": "2014-5-11至2015-6-11"
      },
      {
        "id": 2,
        "unit": "电子商务有限公司",
        "name": "张三",
        "sex": 2,
        "education": "大学",
        "test": "合格",
        "number": "22",
        "term": "2014-5-11至2015-6-11"
      },
      {
        "id": 3,
        "unit": "电子商务有限公司",
        "name": "张三",
        "sex": 2,
        "education": "高中",
        "test": "合格",
        "number": "5",
        "term": "2014-5-11至2015-6-11"
      },
      {
        "id": 4,
        "unit": "电子商务有限公司",
        "name": "张三",
        "sex": 1,
        "education": "初中",
        "test": "合格",
        "number": "15456",
        "term": "2014-5-11至2015-6-11"
      },
      {
        "id": 5,
        "unit": "电子商务有限公司",
        "name": "张三",
        "sex": 1,
        "education": "高中",
        "test": "合格",
        "number": "13",
        "term": "2014-5-11至2015-6-11"
      },
      {
        "id": 6,
        "unit": "电子商务有限公司",
        "name": "张三",
        "sex": 1,
        "education": "大学",
        "test": "合格",
        "number": "12",
        "term": "2014-5-11至2015-6-11"
      },
      {
        "id": 7,
        "unit": "电子商务有限公司",
        "name": "张三",
        "sex": 2,
        "education": "大学",
        "test": "合格",
        "number": "24552123",
        "term": "2014-5-11至2015-6-11"
      },
      {
        "id": 8,
        "unit": "电子商务有限公司",
        "name": "张三",
        "sex": 1,
        "education": "初中",
        "test": "合格",
        "number": "123",
        "term": "2014-5-11至2015-6-11"
      }
    ]
  }
}