{
  "status": "success",
  "result": {
    "pageNo": 1,
    "page_size": 10,
    "total_count": 60,
    "page_count": 6,
    "item_list": [
      {
        "id": 1,
        "unit":"济南黄记煌乙丑餐饮合伙企业（有限合伙）第一分店",
        "person":"济南黄记煌乙丑餐饮合伙企业（有限合伙）",
        "time":"2019-2-26 12:39:02",
        "record":"食药监聚备（2019）3号",
        "time1":"2019-2-13",
        "meal":"1",
        "num":"3",
        "date":"2019-2-15",
        "person1":"刘丽霞",
        "phone":"17812345678",
        "state":"否"
      }
    ]
  }
}