{
  "status": "success",
  "result": {
    "pageNo": 1,
    "page_size": 10,
    "total_count": 60,
    "page_count": 6,
    "item_list": [
      {
        "id": 1,
        "action": "添加",
        "time": "2019-06-29",
        "description": " ",
        "operator":"济南市历下百汇果篮水果店"
      }
    ]
  }
}