{
    "status": "success",
      "result": {
        "page": 1,
        "page_size": 10,
        "total_count": 25,
        "page_count": 3,
        "item_list": [
          {
            "id": 1,
            "name": "趵突泉食药所",
            "ename": "北京必胜客比萨饼有限公司济南玉函路餐厅",
            "person":"马涛",
            "phone":"123456789",
            "checkperson":"陈留昌,张健"
          },
          {
            "id": 2,
            "name": "趵突泉食药所",
            "ename": "北京必胜客比萨饼有限公司济南玉函路餐厅",
            "person":"马涛",
            "phone":"123456789",
            "checkperson":"陈留昌,张健"
          },
          {
            "id": 3,
            "name": "趵突泉食药所",
            "ename": "北京必胜客比萨饼有限公司济南玉函路餐厅",
            "person":"马涛",
            "phone":"123456789",
            "checkperson":"陈留昌,张健"
          },
          {
            "id": 4,
            "name": "趵突泉食药所",
            "ename": "北京必胜客比萨饼有限公司济南玉函路餐厅",
            "person":"马涛",
            "phone":"123456789",
            "checkperson":"陈留昌,张健"
          },
          {
            "id": 5,
            "name": "趵突泉食药所",
            "ename": "北京必胜客比萨饼有限公司济南玉函路餐厅",
            "person":"马涛",
            "phone":"123456789",
            "checkperson":"陈留昌,张健"
          },
          {
            "id": 6,
            "name": "趵突泉食药所",
            "ename": "北京必胜客比萨饼有限公司济南玉函路餐厅",
            "person":"马涛",
            "phone":"123456789",
            "checkperson":"陈留昌,张健"
          },
          {
            "id": 7,
            "name": "趵突泉食药所",
            "ename": "北京必胜客比萨饼有限公司济南玉函路餐厅",
            "person":"马涛",
            "phone":"123456789",
            "checkperson":"陈留昌,张健"
          },
          {
              "id": 8,
              "name": "趵突泉食药所",
            "ename": "北京必胜客比萨饼有限公司济南玉函路餐厅",
            "person":"马涛",
            "phone":"123456789",
            "checkperson":"陈留昌,张健"
            },
            {
              "id": 9,
              "name": "趵突泉食药所",
            "ename": "北京必胜客比萨饼有限公司济南玉函路餐厅",
            "person":"马涛",
            "phone":"123456789",
            "checkperson":"陈留昌,张健"
            },
            {
              "id": 10,
              "name": "趵突泉食药所",
            "ename": "北京必胜客比萨饼有限公司济南玉函路餐厅",
            "person":"马涛",
            "phone":"123456789",
            "checkperson":"陈留昌,张健"
          }
        ]
      }
    }