{
    "status": "success",
      "result": {
        "page": 1,
        "page_size": 10,
        "total_count": 25,
        "page_count": 3,
        "item_list": [
          {
            "id": 1,
            "name": "趵突泉食药所",
            "ed": 0,
            "ing":543
          },
          {
            "id": 2,
            "name": "大明湖食药所",
            "ed": 0,
            "ing":543
          },
          {
            "id": 3,
            "name": "趵突泉食药所",
            "ed": 0,
            "ing":543
          },
          {
            "id": 4,
            "name": "趵突泉食药所",
            "ed": 0,
            "ing":543
          },
          {
            "id": 5,
            "name": "趵突泉食药所",
            "ed": 0,
            "ing":543
          },
          {
            "id": 6,
            "name": "趵突泉食药所",
            "ed": 0,
            "ing":543
          },
          {
            "id": 7,
            "name": "趵突泉食药所",
            "ed": 0,
            "ing":543
          },
          {
              "id": 8,
              "name": "趵突泉食药所",
            "ed": 0,
            "ing":543
            },
            {
              "id": 9,
              "name": "趵突泉食药所",
            "ed": 0,
            "ing":543
            },
            {
              "id": 10,
              "name": "趵突泉食药所",
              "ed": 0,
              "ing":543
          }
        ]
      }
    }