{
    "status": "success",
      "result": {
        "page": 1,
        "page_size": 10,
        "total_count": 60,
        "page_count": 6,
        "item_list": [
          {
              "id": 1,
              "name": "一、许可管理（100分）",
              "extra": "",
              "kind":"餐饮服务单位",
              "order":1,
              "classname":"二、人员管理 （100分）",
              "fieldname":"1.是否超过有效期限★",
              "type":1,
              "grade":20,
              "scoringstandard":"发现超过有效期限扣20分",
              "scoringguide":"已提交许可证申请延续程序可不予扣分"
          },
          {
              "id": 2,
              "name": "一、许可管理（100分）",
              "extra": "",
              "kind":"餐饮服务单位",
              "order":1,
              "classname":"二、人员管理 （100分）",
              "fieldname":"1.是否超过有效期限★",
              "type":2,
              "grade":20,
              "scoringstandard":"发现超过有效期限扣20分",
              "scoringguide":"已提交许可证申请延续程序可不予扣分"
          },
          {
              "id": 3,
              "name": "一、许可管理（100分）",
              "extra": "",
              "kind":"餐饮服务单位",
              "order":1,
              "classname":"二、人员管理 （100分）",
              "fieldname":"1.是否超过有效期限★",
              "type":2,
              "grade":20,
              "scoringstandard":"发现超过有效期限扣20分",
              "scoringguide":"已提交许可证申请延续程序可不予扣分"
          } ,
          {
            "id": 4,
            "name": "一、许可管理（100分）",
            "extra": "",
            "kind":"餐饮服务单位",
            "order":1,
            "classname":"二、人员管理 （100分）",
            "fieldname":"1.是否超过有效期限★",
            "type":1,
            "grade":20,
            "scoringstandard":"发现超过有效期限扣20分",
            "scoringguide":"已提交许可证申请延续程序可不予扣分"
        },
        {
            "id": 5,
            "name": "一、许可管理（100分）",
              "extra": "",
              "kind":"餐饮服务单位",
              "order":1,
              "classname":"二、人员管理 （100分）",
              "fieldname":"1.是否超过有效期限★",
              "type":1,
              "grade":20,
              "scoringstandard":"发现超过有效期限扣20分",
              "scoringguide":"已提交许可证申请延续程序可不予扣分"
        },
        {
            "id": 6,
            "name": "一、许可管理（100分）",
            "extra": "",
            "kind":"餐饮服务单位",
            "order":1,
            "classname":"二、人员管理 （100分）",
            "fieldname":"1.是否超过有效期限★",
            "type":1,
            "grade":20,
            "scoringstandard":"发现超过有效期限扣20分",
            "scoringguide":"已提交许可证申请延续程序可不予扣分"
        } ,    
        {
            "id": 7,
            "name": "一、许可管理（100分）",
            "extra": "",
            "kind":"餐饮服务单位",
            "order":1,
            "classname":"二、人员管理 （100分）",
            "fieldname":"1.是否超过有效期限★",
            "type":1,
            "grade":20,
            "scoringstandard":"发现超过有效期限扣20分",
            "scoringguide":"已提交许可证申请延续程序可不予扣分"
        } ,    
        {
            "id": 8,
            "name": "一、许可管理（100分）",
              "extra": "",
              "kind":"餐饮服务单位",
              "order":1,
              "classname":"二、人员管理 （100分）",
              "fieldname":"1.是否超过有效期限★",
              "type":1,
              "grade":20,
              "scoringstandard":"发现超过有效期限扣20分",
              "scoringguide":"已提交许可证申请延续程序可不予扣分"
        } ,  
        {
            "id": 9,
            "name": "一、许可管理（100分）",
              "extra": "",
              "kind":"餐饮服务单位",
              "order":1,
              "classname":"二、人员管理 （100分）",
              "fieldname":"1.是否超过有效期限★",
              "type":2,
              "grade":20,
              "scoringstandard":"发现超过有效期限扣20分",
              "scoringguide":"已提交许可证申请延续程序可不予扣分"
        },     
        {
            "id": 10,
            "name": "一、许可管理（100分）",
            "extra": "",
            "kind":"餐饮服务单位",
            "order":1,
            "classname":"二、人员管理 （100分）",
            "fieldname":"1.是否超过有效期限★",
            "type":2,
            "grade":20,
            "scoringstandard":"发现超过有效期限扣20分",
            "scoringguide":"已提交许可证申请延续程序可不予扣分"
        }           
        ]
      }
    }