{
  "status": "success",
  "result": {
    "page": 1,
    "page_size": 10,
    "total_count": 60,
    "page_count": 6,
    "item_list": [
      {
        "id": 1,
        "project": "行政处罚",
        "content": 123,
        "person": "测试局",
        "time": "2019-1-1"
      }
    ]
  }
}