{
    "status": "success",
      "result": {
        "page": 1,
        "page_size": 10,
        "total_count": 25,
        "page_count": 3,
        "item_list": [
          {
            "id": 1,
            "year": "2019",
            "kind": "日常检查",
            "area":"大明湖街道",
            "grid":"大明湖",
            "checkclass":"济南历下蜜冰食品店",
            "date":"2019年01月24日16时25分至16时30分",
            "person":"王兵,陶瑜",
            "result":"符合",
            "resultdeal":"通过",
            "rate":"4次",
            "num":1,
            "yn":"否",
            "achieve":"已完成",
            "address":"东城区",
            "licensenumber":123456,
            "dutyperson":"小明",
            "OUIO":"济南市药监局",
            "contact":1780000000,
            "entourage":"小红",
            "enforcer":"小蓝",
            "enforcementnumber":"xxxxx000",
            "lasttime":"20190601",
            "deal":""
          },
          {
            "id": 2,
            "year": "2019",
            "kind": "日常检查",
            "area":"大明湖街道",
            "grid":"大明湖",
            "checkclass":"济南历下蜜冰食品店",
            "date":"2019年01月24日16时25分至16时30分",
            "person":"王兵,陶瑜",
            "result":"符合",
            "resultdeal":"通过",
            "rate":"4次",
            "num":1,
            "yn":"否",
            "achieve":"已完成",
            "address":"东城区",
            "licensenumber":123456,
            "dutyperson":"小明",
            "OUIO":"济南市药监局",
            "contact":1780000000,
            "entourage":"小红",
            "enforcer":"小蓝",
            "enforcementnumber":"xxxxx000",
            "lasttime":"20190601",
            "deal":""
          },
          {
            "id": 3,
            "year": "2019",
            "kind": "日常检查",
            "area":"大明湖街道",
            "grid":"大明湖",
            "checkclass":"济南历下蜜冰食品店",
            "date":"2019年01月24日16时25分至16时30分",
            "person":"王兵,陶瑜",
            "result":"符合",
            "resultdeal":"通过",
            "rate":"4次",
            "num":1,
            "yn":"否",
            "achieve":"已完成",
            "address":"东城区",
            "licensenumber":123456,
            "dutyperson":"小明",
            "OUIO":"济南市药监局",
            "contact":1780000000,
            "entourage":"小红",
            "enforcer":"小蓝",
            "enforcementnumber":"xxxxx000",
            "lasttime":"20190601",
            "deal":""
          },
          {
            "id": 4,
            "year": "2019",
            "kind": "日常检查",
            "area":"大明湖街道",
            "grid":"大明湖",
            "checkclass":"济南历下蜜冰食品店",
            "date":"2019年01月24日16时25分至16时30分",
            "person":"王兵,陶瑜",
            "result":"符合",
            "resultdeal":"通过",
            "rate":"4次",
            "num":1,
            "yn":"否",
            "achieve":"已完成",
            "address":"东城区",
            "licensenumber":123456,
            "dutyperson":"小明",
            "OUIO":"济南市药监局",
            "contact":1780000000,
            "entourage":"小红",
            "enforcer":"小蓝",
            "enforcementnumber":"xxxxx000",
            "lasttime":"20190601",
            "deal":""
          },
          {
            "id": 5,
            "year": "2019",
            "kind": "日常检查",
            "area":"大明湖街道",
            "grid":"大明湖",
            "checkclass":"济南历下蜜冰食品店",
            "date":"2019年01月24日16时25分至16时30分",
            "person":"王兵,陶瑜",
            "result":"符合",
            "resultdeal":"通过",
            "rate":"4次",
            "num":1,
            "yn":"否",
            "achieve":"已完成",
            "address":"东城区",
            "licensenumber":123456,
            "dutyperson":"小明",
            "OUIO":"济南市药监局",
            "contact":1780000000,
            "entourage":"小红",
            "enforcer":"小蓝",
            "enforcementnumber":"xxxxx000",
            "lasttime":"20190601",
            "deal":""
          },
          {
            "id": 6,
            "year": "2019",
            "kind": "日常检查",
            "area":"大明湖街道",
            "grid":"大明湖",
            "checkclass":"济南历下蜜冰食品店",
            "date":"2019年01月24日16时25分至16时30分",
            "person":"王兵,陶瑜",
            "result":"符合",
            "resultdeal":"通过",
            "rate":"4次",
            "num":1,
            "yn":"否",
            "achieve":"已完成",
            "address":"东城区",
            "licensenumber":123456,
            "dutyperson":"小明",
            "OUIO":"济南市药监局",
            "contact":1780000000,
            "entourage":"小红",
            "enforcer":"小蓝",
            "enforcementnumber":"xxxxx000",
            "lasttime":"20190601",
            "deal":""
          },
          {
            "id": 7,
            "year": "2019",
            "kind": "日常检查",
            "area":"大明湖街道",
            "grid":"大明湖",
            "checkclass":"济南历下蜜冰食品店",
            "date":"2019年01月24日16时25分至16时30分",
            "person":"王兵,陶瑜",
            "result":"符合",
            "resultdeal":"通过",
            "rate":"4次",
            "num":1,
            "yn":"否",
            "achieve":"已完成",
            "address":"东城区",
            "licensenumber":123456,
            "dutyperson":"小明",
            "OUIO":"济南市药监局",
            "contact":1780000000,
            "entourage":"小红",
            "enforcer":"小蓝",
            "enforcementnumber":"xxxxx000",
            "lasttime":"20190601",
            "deal":""
          },
          {
              "id": 8,
              "year": "2019",
            "kind": "日常检查",
            "area":"大明湖街道",
            "grid":"大明湖",
            "checkclass":"济南历下蜜冰食品店",
            "date":"2019年01月24日16时25分至16时30分",
            "person":"王兵,陶瑜",
            "result":"符合",
            "resultdeal":"通过",
            "rate":"4次",
            "num":1,
            "yn":"否",
            "achieve":"已完成",
            "address":"东城区",
            "licensenumber":123456,
            "dutyperson":"小明",
            "OUIO":"济南市药监局",
            "contact":1780000000,
            "entourage":"小红",
            "enforcer":"小蓝",
            "enforcementnumber":"xxxxx000",
            "lasttime":"20190601",
            "deal":""
            },
            {
              "id": 9,
              "year": "2019",
              "kind": "日常检查",
              "area":"大明湖街道",
              "grid":"大明湖",
              "checkclass":"济南历下蜜冰食品店",
              "date":"2019年01月24日16时25分至16时30分",
              "person":"王兵,陶瑜",
              "result":"符合",
              "resultdeal":"通过",
              "rate":"4次",
              "num":1,
              "yn":"否",
              "achieve":"已完成",
              "address":"东城区",
              "licensenumber":123456,
              "dutyperson":"小明",
              "OUIO":"济南市药监局",
              "contact":1780000000,
              "entourage":"小红",
              "enforcer":"小蓝",
              "enforcementnumber":"xxxxx000",
              "lasttime":"20190601",
              "deal":""
            },
            {
              "id": 10,
              "year": "2019",
              "kind": "日常检查",
              "grid":"大明湖",
              "area":"大明湖街道",
              "checkclass":"济南历下蜜冰食品店",
              "date":"2019年01月24日16时25分至16时30分",
              "person":"王兵,陶瑜",
              "result":"符合",
              "resultdeal":"通过",
              "rate":"4次",
              "num":1,
              "yn":"否",
              "achieve":"已完成",
              "address":"东城区",
              "licensenumber":123456,
              "dutyperson":"小明",
              "OUIO":"济南市药监局",
              "contact":1780000000,
              "entourage":"小红",
              "enforcer":"小蓝",
              "enforcementnumber":"xxxxx000",
              "lasttime":"20190601",
              "deal":""
          }
        ]
      }
    }