{
  "status": "success",
  "result": {
    "page": 1,
    "page_size": 10,
    "total_count": 25,
    "page_count": 3,
    "item_list": [
      {
        "id": 1,
        "name": "产品管理员",
        "type": 1,
        "status": 1,
        "remark": "",
        "operator": "Admin",
        "operateTime": "2017-10-15T12:42:47.000+0000",
        "operateIp": "0:0:0:0:0:0:0:1"
      },
      {
        "id": 2,
        "name": "订单管理员",
        "type": 1,
        "status": 1,
        "remark": "",
        "operator": "Admin",
        "operateTime": "2017-10-15T12:18:59.000+0000",
        "operateIp": "0:0:0:0:0:0:0:1"
      },
      {
        "id": 3,
        "name": "公告管理员",
        "type": 1,
        "status": 1,
        "remark": "",
        "operator": "Admin",
        "operateTime": "2017-10-15T12:19:10.000+0000",
        "operateIp": "0:0:0:0:0:0:0:1"
      },
      {
        "id": 4,
        "name": "权限管理员",
        "type": 1,
        "status": 1,
        "remark": "",
        "operator": "Admin",
        "operateTime": "2017-10-15T21:30:36.000+0000",
        "operateIp": "0:0:0:0:0:0:0:1"
      },
      {
        "id": 5,
        "name": "运维管理员",
        "type": 1,
        "status": 1,
        "remark": "运维",
        "operator": "Admin",
        "operateTime": "2017-10-17T00:23:28.000+0000",
        "operateIp": "0:0:0:0:0:0:0:1"
      }
    ]
  }
}