{
    "status": "success",
      "result": {
        "pageNo": 1,
        "page_size": 10,
        "total_count": 60,
        "page_count": 6,
        "item_list": [
          {
            "id": 1,
            "order":0,
            "name": "名称",
            "date": "日期"   
           
          },
          {
            "id": 2,
            "order":0,
            "name": "名称",
            "date": "日期"  
          },
          {
            "id": 3,
            "order":0,
            "name": "名称",
            "date": "日期"  
          },
          {
            "id": 4,
            "order":0,
            "name": "名称",
            "date": "日期"  
          },
          {
            "id": 5,
            "order":0,
            "name": "名称",
            "date": "日期"  
          },
          {
            "id": 6,
            "order":0,
            "name": "名称",
            "date": "日期"  
          },
          {
            "id": 7,
            "order":0,
            "name": "名称",
            "date": "日期"  
          },
          {
            "id": 8,
            "order":0,
            "name": "名称",
            "date": "日期"  
          },
          {
            "id": 9,
            "order":0,
            "name": "名称",
            "date": "日期"  
          },
          {
            "id": 10,
            "order":0,
            "name": "名称",
            "date": "日期"  
          }
        ]
      }
    }