{
  "status": "success",
    "result": {
      "page": 1,
      "page_size": 10,
      "total_count": 25,
      "page_count": 3,
      "item_list": [
        {
          "id": 1,
          "name": "小天使幼儿园",
          "kind": "海康流媒体7600平台",
          "IP":"192"
        },
        {
          "id": 2,
          "name": "小天使幼儿园",
          "kind": "海康流媒体7600平台",
          "IP":"192"
        },
        {
          "id": 3,
          "name": "小天使幼儿园",
          "kind": "海康流媒体7600平台",
          "IP":"192"
        },
        {
          "id": 4,
          "name": "小天使幼儿园",
          "kind": "海康流媒体7600平台",
          "IP":"192"
        },
        {
          "id": 5,
          "name": "小天使幼儿园",
          "kind": "海康流媒体7600平台",
          "IP":"192"
        },
        {
          "id": 6,
          "name": "小天使幼儿园",
          "kind": "海康流媒体7600平台",
          "IP":"192"
        },
        {
          "id": 7,
          "name": "小天使幼儿园",
          "kind": "海康流媒体7600平台",
          "IP":"192"
        },
        {
            "id": 8,
            "name": "小天使幼儿园",
            "kind": "海康流媒体7600平台",
            "IP":"192"
          },
          {
            "id": 9,
            "name": "小天使幼儿园",
            "kind": "海康流媒体7600平台",
            "IP":"192"
          },
          {
            "id": 10,
            "name": "小天使幼儿园",
            "kind": "海康流媒体7600平台",
            "IP":"192"
        }
      ]
    }
  }