{
  "status": "success",
    "result": {
      "page": 1,
      "page_size": 10,
      "total_count": 25,
      "page_count": 3,
      "item_list": [
        {
          "id": 1,
          "name": "小天使幼儿园",
          "grid": "文东街道",
          "grade":""
        },
        {
          "id": 2,
          "name": "小天使幼儿园",
          "grid": "文东街道",
          "grade":""
        },
        {
          "id": 3,
          "name": "小天使幼儿园",
          "grid": "文东街道",
          "grade":""
        },
        {
          "id": 4,
          "name": "小天使幼儿园",
          "grid": "文东街道",
          "grade":""
        },
        {
          "id": 5,
          "name": "小天使幼儿园",
          "grid": "文东街道",
          "grade":""
        },
        {
          "id": 6,
          "name": "小天使幼儿园",
          "grid": "文东街道",
          "grade":""
        },
        {
          "id": 7,
          "name": "小天使幼儿园",
          "grid": "文东街道",
          "grade":""
        },
        {
            "id": 8,
            "name": "小天使幼儿园",
            "grid": "文东街道",
            "grade":""
          },
          {
            "id": 9,
            "name": "小天使幼儿园",
            "grid": "文东街道",
            "grade":""
          },
          {
            "id": 10,
            "name": "小天使幼儿园",
            "grid": "文东街道",
            "grade":""
        }
      ]
    }
  }